

 || Session_ID:- 49f6091b-052a-7047-725c-a6174cd9f650 ||



       tasnuva  ( Tuesday 9:46am ) :-- hello 



       AVA  ( Tuesday 9:46am ) :-- Good day! Do you have any valid Applicant/ Tracking ID ?  tasnuva. 
 How can I help you?? 



       AVA  ( Tuesday 9:47am ) :-- Hey!! tasnuva. I'm eagerly waiting for your response. </br> Do you wish to continue chatting ?? 



       tasnuva  ( Tuesday 9:48am ) :-- 01915824432 



       AVA  ( Tuesday 9:48am ) :-- Ok! tasnuva. Then, how can help you ?? 



       tasnuva  ( Tuesday 9:48am ) :-- hello 



       AVA  ( Tuesday 9:48am ) :-- Good day! Do you have any valid Applicant/ Tracking ID ?  tasnuva. 
 How can I help you?? 



       tasnuva  ( Tuesday 9:48am ) :-- no 



       AVA  ( Tuesday 9:48am ) :-- No problem!. Your Contact Number of job application will Do. Please enter it correctly. 



       tasnuva  ( Tuesday 9:48am ) :-- 01915824432 



       AVA  ( Tuesday 9:48am ) :-- Please enter the contact number again 



       tasnuva  ( Tuesday 9:49am ) :-- 01710312915 



       AVA  ( Tuesday 9:49am ) :-- Welcome!     Mohammad Istiyak Hossain Siddiquee....... I am initiating a short Interview Session for you. Are you ready?? 



       tasnuva  ( Tuesday 9:50am ) :-- ok 



       AVA  ( Tuesday 9:50am ) :-- From which Unversity You have been graduated ? 



       AVA  ( Tuesday 9:52am ) :-- Hey!! tasnuva. I'm eagerly waiting for your response. </br> Do you wish to continue chatting ?? 



       AVA  ( Tuesday 9:54am ) :-- Thanks!! for using this chatbot, tasnuva.  Have a nice day!! 



 || Session_ID:- a0f9e387-b4af-c570-9a58-15f534d7b5fe ||



       tasnuva  ( Tuesday 11:54am ) :-- hello 



       AVA  ( Tuesday 11:54am ) :-- Good day! Do you have any valid Applicant/ Tracking ID ?  tasnuva. 
 How can I help you?? 



       tasnuva  ( Tuesday 11:54am ) :-- no 



       AVA  ( Tuesday 11:54am ) :-- Okay! Don't Worry ! . I could work with your Contact Number. Please enter it correctly. 



 || Session_ID:- 43790a21-ec43-6b45-3934-e1bec2f91b11 ||



       tasnuva  ( Tuesday 11:55am ) :-- no 



       AVA  ( Tuesday 11:55am ) :-- I see. 



       tasnuva  ( Tuesday 11:55am ) :-- no 



       AVA  ( Tuesday 11:55am ) :-- I see. 



       AVA  ( Tuesday 11:57am ) :-- Hey!! tasnuva. I'm eagerly waiting for your response. </br> Do you wish to continue chatting ?? 



       AVA  ( Tuesday 11:58am ) :-- Thanks!! for using this chatbot, tasnuva.  Have a nice day!! 



 || Session_ID:- a229b3e7-eb0b-ffe9-00fb-2cc408fe610a ||



       tasnuva  ( Tuesday 1:21pm ) :-- hello 



       AVA  ( Tuesday 1:21pm ) :-- Good day! Do you have any valid Applicant/ Tracking ID ?  tasnuva. 
 How can I help you?? 



       tasnuva  ( Tuesday 1:21pm ) :-- no 



       AVA  ( Tuesday 1:21pm ) :-- Okay! Don't Worry ! . I could work with your Contact Number. Please enter it correctly. 



       tasnuva  ( Tuesday 1:21pm ) :-- 01534124876' 



       tasnuva  ( Tuesday 1:21pm ) :-- 01534124876 



       AVA  ( Tuesday 1:21pm ) :-- Great!! Now, please provide Your Mobile Number you use for job recruitment. 



       AVA  ( Tuesday 1:21pm ) :-- Hello ! Shahnewaz Mahmud ... You have already given the interview. No need to do it again. Thanks!. 



       tasnuva  ( Tuesday 1:22pm ) :-- 01740399036 



       AVA  ( Tuesday 1:22pm ) :-- I am here only to proceed E-recruitment. Please Contact with our HR department for any kind of help and support. Thanks!! 



       tasnuva  ( Tuesday 1:22pm ) :-- hello 



       AVA  ( Tuesday 1:22pm ) :-- Greetings! Do you have any valid Applicant/ Tracking ID ?  tasnuva. 
 How can I help you?? 



       tasnuva  ( Tuesday 1:22pm ) :-- no 



       AVA  ( Tuesday 1:22pm ) :-- No problem!. Your Contact Number of job application will Do. Please enter it correctly. 



       tasnuva  ( Tuesday 1:22pm ) :-- 01740399036 



       AVA  ( Tuesday 1:22pm ) :-- Welcome!     Md. Mohaymenul Islam....... I am initiating a short Interview Session for you. Are you ready?? 



       tasnuva  ( Tuesday 1:22pm ) :-- yes 



       AVA  ( Tuesday 1:22pm ) :-- From which Unversity You have been graduated ? 



       tasnuva  ( Tuesday 1:23pm ) :-- IUBAT 



       AVA  ( Tuesday 1:23pm ) :-- What is Your Home District ? 



       tasnuva  ( Tuesday 1:24pm ) :-- DHAKA 



       AVA  ( Tuesday 1:24pm ) :-- Are you interested to join support team? 



       tasnuva  ( Tuesday 1:24pm ) :-- no 



       AVA  ( Tuesday 1:24pm ) :-- In which field you intended to work from the following: 1) Software Development 2) Implementation 3) QC 4) Mobile Apps 5) Artificial Intelligence 



       tasnuva  ( Tuesday 1:24pm ) :-- ai 



       AVA  ( Tuesday 1:24pm ) :-- The interview ends here. We will contact with you soon. Thanks for your time and have a great day!!!! 



       tasnuva  ( Tuesday 1:26pm ) :-- hello 



       AVA  ( Tuesday 1:26pm ) :-- Good day! Do you have any valid Applicant/ Tracking ID ?  tasnuva. 
 How can I help you?? 



       tasnuva  ( Tuesday 1:26pm ) :-- no 



       AVA  ( Tuesday 1:26pm ) :-- Okay! Don't Worry ! . I could work with your Contact Number. Please enter it correctly. 



       tasnuva  ( Tuesday 1:26pm ) :-- 01673552194 



       AVA  ( Tuesday 1:26pm ) :-- Welcome!     Sadi Md. Tarmim Hoque....... I am initiating a short Interview Session for you. Are you ready?? 



       tasnuva  ( Tuesday 1:26pm ) :-- yes 



       AVA  ( Tuesday 1:26pm ) :-- From which Unversity You have been graduated ? 



       tasnuva  ( Tuesday 1:26pm ) :-- IUBAT 



       AVA  ( Tuesday 1:26pm ) :-- What is Your Home District ? 



       tasnuva  ( Tuesday 1:26pm ) :-- dhaka 



       AVA  ( Tuesday 1:26pm ) :-- Are you interested to join support team? 



       tasnuva  ( Tuesday 1:26pm ) :-- no 



       AVA  ( Tuesday 1:26pm ) :-- In which field you intended to work from the following: 1) Software Development 2) Implementation 3) QC 4) Mobile Apps 5) Artificial Intelligence 



       tasnuva  ( Tuesday 1:28pm ) :-- hello 



       AVA  ( Tuesday 1:28pm ) :-- The interview ends here. We will contact with you soon. Thanks for your time and have a great day!!!! 



       tasnuva  ( Tuesday 1:28pm ) :-- no 



       AVA  ( Tuesday 1:28pm ) :-- I see. 



       tasnuva  ( Tuesday 1:28pm ) :-- hello 



       AVA  ( Tuesday 1:28pm ) :-- Hello! Do you have any valid Applicant/ Tracking ID ?  tasnuva. <br /> How can I help you?? 



       tasnuva  ( Tuesday 1:28pm ) :-- no 



       AVA  ( Tuesday 1:28pm ) :-- Okay! Don't Worry ! . I could work with your Contact Number. Please enter it correctly. 



       tasnuva  ( Tuesday 1:28pm ) :-- 01740938541 



       AVA  ( Tuesday 1:28pm ) :-- Welcome!     Md. Jahangir Alam....... I am initiating a short Interview Session for you. Are you ready?? 



       tasnuva  ( Tuesday 1:28pm ) :-- yes 



       AVA  ( Tuesday 1:28pm ) :-- From which Unversity You have been graduated ? 



       AVA  ( Tuesday 1:30pm ) :-- Hey!! tasnuva. I'm eagerly waiting for your response. </br> Do you wish to continue chatting ?? 



       tasnuva  ( Tuesday 1:31pm ) :-- hello 



       AVA  ( Tuesday 1:31pm ) :-- Ok! tasnuva. Then, how can help you ?? 



       tasnuva  ( Tuesday 1:31pm ) :-- hello 



       AVA  ( Tuesday 1:31pm ) :-- Hello! Do you have any valid Applicant/ Tracking ID ?  tasnuva. <br /> How can I help you?? 



       tasnuva  ( Tuesday 1:32pm ) :-- hello 



       AVA  ( Tuesday 1:32pm ) :-- Good day! Do you have any valid Applicant/ Tracking ID ?  tasnuva. 
 How can I help you?? 



       tasnuva  ( Tuesday 1:32pm ) :-- no 



       AVA  ( Tuesday 1:32pm ) :-- No problem!. Your Contact Number of job application will Do. Please enter it correctly. 



       tasnuva  ( Tuesday 1:32pm ) :-- 01688395411 



       AVA  ( Tuesday 1:32pm ) :-- Welcome!     Nabil Shad....... I am initiating a short Interview Session for you. Are you ready?? 



       tasnuva  ( Tuesday 1:32pm ) :-- yes 



       AVA  ( Tuesday 1:32pm ) :-- What is Your Home District ? 



       AVA  ( Tuesday 1:34pm ) :-- Hey!! tasnuva. I'm eagerly waiting for your response. </br> Do you wish to continue chatting ?? 



       AVA  ( Tuesday 1:35pm ) :-- Thanks!! for using this chatbot, tasnuva.  Have a nice day!! 

