

 || Session_ID:- eff5867b-6ad7-f93d-f9a9-c3db2db22df4 ||



       tasnuva  ( Thursday 10:18am ) :-- interview 



       AVA  ( Thursday 10:18am ) :-- I am sorry! tasnuva. Please call 16205 for further assistance. <br /> Email:- contact.center@bankasia-bd.com or visit http://www.bankasia-bd.com/ 



       tasnuva  ( Thursday 10:18am ) :-- hello 



       AVA  ( Thursday 10:18am ) :-- Hey!  tasnuva. How can I help you?? 



       tasnuva  ( Thursday 10:18am ) :-- interview 



       AVA  ( Thursday 10:18am ) :-- I am sorry! tasnuva. Please call 16205 for further assistance. <br /> Email:- contact.center@bankasia-bd.com or visit http://www.bankasia-bd.com/ 



       AVA  ( Thursday 10:20am ) :-- Hey!! tasnuva. I'm eagerly waiting for your response. </br> Do you wish to continue chatting ?? 



       AVA  ( Thursday 10:21am ) :-- Thanks!! for using this chatbot, tasnuva.  Have a nice day!! 

