

 || Session_ID:- 77e45f3d-2ae1-bc87-cdac-83f331bc139d ||



       zahid  ( Monday 4:19pm ) :-- Interview 



       AVA  ( Monday 4:19pm ) :-- Well ! Do you have any valid Applicant/ Tracking ID ? 



       zahid  ( Monday 4:19pm ) :-- y 



       AVA  ( Monday 4:19pm ) :-- Great!! Now, please provide Your Mobile Number you use for this job recruitment. 



       zahid  ( Monday 4:19pm ) :-- 01957193907 



       AVA  ( Monday 4:19pm ) :-- Please enter your contact number again for confirmation. 



       zahid  ( Monday 4:19pm ) :-- 01957193907 



       AVA  ( Monday 4:19pm ) :-- So you're !     Mondip Paul....... I am initiating a short interview session for you. <br /><br />1. There will be MCQ type Questions.You have to choose the right answer !<br />2. Each Question will be displayed only once ! <br />3. You will get 30 seconds to answer for each questions !<br /><br />Are you ready?? 



       zahid  ( Monday 4:19pm ) :-- y 



       AVA  ( Monday 4:19pm ) :-- Which language in the following has no OOP property ?  \n \r JAVA ,  PHP ,  Python ,  C 



       zahid  ( Monday 4:20pm ) :-- JAVA 



       AVA  ( Monday 4:20pm ) :-- What is the name of national birds of Bangladesh \n \r Eagle ,  Magpie ,  Parrot ,  Bird ,  Rio 



       zahid  ( Monday 4:20pm ) :-- Magpie 



       AVA  ( Monday 4:20pm ) :-- What is the capital of India? \n \r New Delhi ,  Kolcata ,  Chennai ,  Mumbai 



       zahid  ( Monday 4:20pm ) :-- New Delhi 



       AVA  ( Monday 4:20pm ) :-- What are the main two renowned database in the world ?  \n \r Oracle ,  SQL Server ,  PHP ,  Python 



       zahid  ( Monday 4:20pm ) :-- Oracle 



       AVA  ( Monday 4:20pm ) :-- Write five sentences about Marketing ? 



       zahid  ( Monday 4:21pm ) :-- rdj jhgg okkh
okkju
kjkhfg
jhhdd
ooo our tr fd sa ghbn tred djfa 
ajfajrrii lkf
dfgsg .fyj 



       zahid  ( Monday 4:22pm ) :-- rdj jhgg okkh
okkju
kjkhfg
jhhdd
ooo our tr fd sa ghbn tred djfa 
ajfajrrii lkf
dfgsg .fyj 



       AVA  ( Monday 4:22pm ) :-- Sorry! I have been trained only to perform interviews of the candidates. Please Contact with our HR department for any kind of help and support. Thanks!! 



       AVA  ( Monday 4:24pm ) :-- Hey!! zahid. I'm eagerly waiting for your response. </br> Do you wish to continue chatting ?? 

