

 || Session_ID:- 21e077ea-c8b1-0882-8402-4904710ec60e ||



       AVA  ( Thursday 2:43pm ) :-- Hey!! nusrat. I'm eagerly waiting for your response. </br> Do you wish to continue chatting ?? 



       AVA  ( Thursday 2:44pm ) :-- Thanks!! for using this chatbot, nusrat.  Have a nice day!! 

