

 || Session_ID:- 2ed30f0a-c9f0-6beb-bc6c-c1408253dc95 ||



       nusrat  ( Tuesday 3:24pm ) :-- hello 



       AVA  ( Tuesday 3:24pm ) :-- Hi! Do you have any valid Applicant/ Tracking ID ?  nusrat. <br /> How may I help you?? 



       nusrat  ( Tuesday 3:24pm ) :-- no 



       AVA  ( Tuesday 3:24pm ) :-- Okay! nusrat, Then choose agian: \r Account Opening , Products and Services , Fees and Charges 



       nusrat  ( Tuesday 3:24pm ) :-- no 



       AVA  ( Tuesday 3:24pm ) :-- No problem!. Your Contact Number of job application will Do. Please enter it correctly. 



       nusrat  ( Tuesday 3:24pm ) :-- 01671637388 



       AVA  ( Tuesday 3:24pm ) :-- Please enter the contact number again for confirmation. 



       nusrat  ( Tuesday 3:24pm ) :-- 01671637388 



       AVA  ( Tuesday 3:25pm ) :-- Please enter the contact number again for confirmation. 



       nusrat  ( Tuesday 3:25pm ) :-- 01671637388 



       AVA  ( Tuesday 3:25pm ) :-- Sorry! I have been trained only to perform interviews of the candidates. Please Contact with our HR department for any kind of help and support. Thanks!! 



       nusrat  ( Tuesday 3:25pm ) :-- hello 



       AVA  ( Tuesday 3:25pm ) :-- Good day! Do you have any valid Applicant/ Tracking ID ?  nusrat. 
 How can I help you?? 



       nusrat  ( Tuesday 3:25pm ) :-- no 



       AVA  ( Tuesday 3:25pm ) :-- Okay! Don't Worry ! . I could work with your Contact Number. Please enter it correctly. 



       nusrat  ( Tuesday 3:25pm ) :-- 01671637388 



       AVA  ( Tuesday 3:25pm ) :-- Please enter the contact number again 



       nusrat  ( Tuesday 3:25pm ) :-- 01671637388 



       AVA  ( Tuesday 3:25pm ) :-- Please enter the contact number again 



       nusrat  ( Tuesday 3:26pm ) :-- 01671637388 



       AVA  ( Tuesday 3:26pm ) :-- I am here only to proceed E-recruitment. Please Contact with our HR department for any kind of help and support. Thanks!! 



       nusrat  ( Tuesday 3:26pm ) :-- welcome 



       AVA  ( Tuesday 3:26pm ) :-- Nice manners! 



       AVA  ( Tuesday 3:28pm ) :-- Hey!! nusrat. I'm eagerly waiting for your response. </br> Do you wish to continue chatting ?? 



       nusrat  ( Tuesday 3:28pm ) :-- no 



       AVA  ( Tuesday 3:28pm ) :-- OK!! nusrat. Bye for now!!.  I will be always present when You will need me!! 



       nusrat  ( Tuesday 3:29pm ) :-- no 



       AVA  ( Tuesday 3:29pm ) :-- I see. 



       nusrat  ( Tuesday 3:29pm ) :-- bye 



       AVA  ( Tuesday 3:29pm ) :-- See you soon! 

