

 || Session_ID:- 54cd0479-3db9-b2ab-7f7e-3d6c3267b348 ||



       Taaha  ( Monday 4:41pm ) :-- Interview 



       AVA  ( Monday 4:41pm ) :-- Of course! Do you have any valid Applicant/ Tracking ID ? 



       Taaha  ( Monday 4:41pm ) :-- no 



       AVA  ( Monday 4:41pm ) :-- Okay! Don't Worry ! . I could work with your Contact Number. Please enter it correctly. 



       Taaha  ( Monday 4:42pm ) :-- i do not want to provide contact number 



       AVA  ( Monday 4:42pm ) :-- Great!! Now, please provide Your Mobile Number you use for this job recruitment. 



       Taaha  ( Monday 4:42pm ) :-- i didn't use one 



       AVA  ( Monday 4:42pm ) :-- Sorry!! Your contact Number is not listed. May be you haven't applied for any post. Please Contact with our HR Department. Thanks! 



       Taaha  ( Monday 4:42pm ) :-- contact hr department 



       AVA  ( Monday 4:42pm ) :-- You could contact with the following email address:- <strong>israt@erainfotechbd.com</strong> for any kind of query. You could reach us at this number <strong>01904119220</strong> as well. Thanks!! 



       Taaha  ( Monday 4:43pm ) :-- i wanna give interview right now 



       AVA  ( Monday 4:43pm ) :-- Of course! Do you have any valid Applicant/ Tracking ID ? 



       Taaha  ( Monday 4:43pm ) :-- o 



       AVA  ( Monday 4:43pm ) :-- Sorry!! Your contact Number is not listed. May be you haven't applied for any post. Please Contact with our HR Department. Thanks! 



       Taaha  ( Monday 4:43pm ) :-- i meant no 



       AVA  ( Monday 4:43pm ) :-- I see. 



       Taaha  ( Monday 4:43pm ) :-- i do not have an valid tracking number 



       AVA  ( Monday 4:43pm ) :-- Sorry! I have been trained only to perform interviews of the candidates. Please Contact with our HR department for any kind of help and support. Thanks!! 



       Taaha  ( Monday 4:44pm ) :-- i wanna give interview right now 



       AVA  ( Monday 4:44pm ) :-- Yeah ! Do you have any valid Applicant/ Tracking ID ? 



       Taaha  ( Monday 4:44pm ) :-- no 



       AVA  ( Monday 4:44pm ) :-- Okay! Don't Worry ! . I could work with your Contact Number. Please enter it correctly. 



       Taaha  ( Monday 4:44pm ) :-- 01701086738 



       AVA  ( Monday 4:44pm ) :-- So you're !     Sajjad Hossain Sabuj....... I am initiating a short interview session for you. <br /><br />1. There will be MCQ type Questions.You have to choose the right answer !<br />2. Each Question will be displayed only once ! <br />3. You will get 30 seconds to answer for each questions !<br /><br />Are you ready?? 



       Taaha  ( Monday 4:44pm ) :-- yep 



       AVA  ( Monday 4:44pm ) :-- Great!! Now, please provide Your Mobile Number you use for this job recruitment. 



       Taaha  ( Monday 4:45pm ) :-- 01701086738 



       AVA  ( Monday 4:45pm ) :-- So you're !     Sajjad Hossain Sabuj....... I am initiating a short interview session for you. <br /><br />1. There will be MCQ type Questions.You have to choose the right answer !<br />2. Each Question will be displayed only once ! <br />3. You will get 30 seconds to answer for each questions !<br /><br />Are you ready?? 



       Taaha  ( Monday 4:45pm ) :-- yes i am ready 



       AVA  ( Monday 4:45pm ) :-- Which language in the following has no OOP property ?  \n \r JAVA ,  PHP ,  Python ,  C 



       Taaha  ( Monday 4:45pm ) :-- Python 



       AVA  ( Monday 4:45pm ) :-- What is the name of national birds of Bangladesh \n \r Eagle ,  Magpie ,  Parrot ,  Bird ,  Rio 



       Taaha  ( Monday 4:46pm ) :-- Parrot 



       AVA  ( Monday 4:46pm ) :-- What is the capital of India? \n \r New Delhi ,  Kolcata ,  Chennai ,  Mumbai 



       Taaha  ( Monday 4:46pm ) :-- New Delhi 



       AVA  ( Monday 4:46pm ) :-- What are the main two renowned database in the world ?  \n \r Oracle ,  SQL Server ,  PHP ,  Python 



       Taaha  ( Monday 4:46pm ) :-- SQL Server 



       AVA  ( Monday 4:46pm ) :-- Write five sentences about Marketing ? 



       Taaha  ( Monday 4:46pm ) :-- Advertisement, Customer, Supply, Demand, Games 



       AVA  ( Monday 4:46pm ) :-- Awesome! Your interview session ends here ! Hope to see You in our company!! 



       Taaha  ( Monday 4:47pm ) :-- Okay 



       AVA  ( Monday 4:47pm ) :-- Good! 



       Taaha  ( Monday 4:47pm ) :-- What will i do now 



       AVA  ( Monday 4:47pm ) :-- I am here only to proceed E-recruitment. Please Contact with our HR department for any kind of help and support. Thanks!! 

