

 || Session_ID:- ab5afa29-50da-b5aa-72a4-1e93bb32ad0b ||



       redu  ( Monday 3:13pm ) :-- Interviesw 



       AVA  ( Monday 3:13pm ) :-- Sure! Do you have any valid Applicant/ Tracking ID ? 



       redu  ( Monday 3:13pm ) :-- no 



       AVA  ( Monday 3:13pm ) :-- Okay! redu, Then choose agian: \r Interview , Vacancy Announcement , Contact HR 



       redu  ( Monday 3:13pm ) :-- interview 



       AVA  ( Monday 3:13pm ) :-- Well ! Do you have any valid Applicant/ Tracking ID ? 



       redu  ( Monday 3:13pm ) :-- no 



       AVA  ( Monday 3:13pm ) :-- Okay! Don't Worry ! . I could work with your Contact Number. Please enter it correctly. 



       redu  ( Monday 3:13pm ) :-- 01670637388 



       AVA  ( Monday 3:13pm ) :-- Sorry! Your contact Number is not listed. Please Contact with our HR Department. Thanks! 



       redu  ( Monday 3:13pm ) :-- interview 



       AVA  ( Monday 3:13pm ) :-- Of course! Do you have any valid Applicant/ Tracking ID ? 



       redu  ( Monday 3:13pm ) :-- no 



       AVA  ( Monday 3:13pm ) :-- No problem!. Your Contact Number of job application will Do. Please enter it correctly. 



       redu  ( Monday 3:13pm ) :-- 01671637388 



       AVA  ( Monday 3:13pm ) :-- No! Abu Baker Siddique ... You have already given the interview. No need to do it again. Thanks!. 

