

 || Session_ID:- 6971eea7-dc59-1938-ce4c-5b7d0236f654 ||



       rakin  ( Wednesday 12:59pm ) :-- INT 



       AVA  ( Wednesday 12:59pm ) :-- Did you mean Interview, rakin ? 



       rakin  ( Wednesday 12:59pm ) :-- yes 



       AVA  ( Wednesday 12:59pm ) :-- Good day! Do you have any valid Applicant/ Tracking ID ? 



       rakin  ( Wednesday 12:59pm ) :-- no 



       AVA  ( Wednesday 12:59pm ) :-- Okay! Don't Worry ! . I could work with your Contact Number. Please enter it correctly. 



       rakin  ( Wednesday 1:01pm ) :-- 01671637388 



       AVA  ( Wednesday 1:01pm ) :-- Welcome!     Abu Baker Siddique....... I am initiating a short Interview Session for you. Are you ready?? 



       rakin  ( Wednesday 1:03pm ) :-- Interview 



       AVA  ( Wednesday 1:03pm ) :-- Yeah I am here ! Do you have any valid Applicant/ Tracking ID ? 



       rakin  ( Wednesday 1:03pm ) :-- no 



       AVA  ( Wednesday 1:03pm ) :-- Okay! Don't Worry ! . I could work with your Contact Number. Please enter it correctly. 



       rakin  ( Wednesday 1:04pm ) :-- 01671637388 



       AVA  ( Wednesday 1:04pm ) :-- Please enter the contact number again for confirmation. 



       rakin  ( Wednesday 1:04pm ) :-- 01671637388 



       AVA  ( Wednesday 1:04pm ) :-- Welcome!     Abu Baker Siddique....... I am initiating a short interview session for you. <br />* There will be MCQ type Questions.You have to choose the right answer.<br />*Each Question will be displayed only once ** You will get 30 seconds for each questions.<br />Are you ready?? 



       rakin  ( Wednesday 1:04pm ) :-- No sir 



       AVA  ( Wednesday 1:05pm ) :-- Okay. I will wait for you. Just say Hi to me whenever you will be ready. 



       rakin  ( Wednesday 1:05pm ) :-- hi 



       AVA  ( Wednesday 1:05pm ) :-- Yeah I am here ! Do you have any valid Applicant/ Tracking ID ? 



       rakin  ( Wednesday 1:10pm ) :-- Interview 



       AVA  ( Wednesday 1:10pm ) :-- Sure! Do you have any valid Applicant/ Tracking ID ? 



       rakin  ( Wednesday 1:10pm ) :-- no 



       AVA  ( Wednesday 1:10pm ) :-- No problem!. Your Contact Number of job application will Do. Please enter it correctly. 



       rakin  ( Wednesday 1:10pm ) :-- 01671637388 



       AVA  ( Wednesday 1:10pm ) :-- Welcome!     Abu Baker Siddique....... I am initiating a short interview session for you. <br /><br />1. There will be MCQ type Questions.You have to choose the right answer.\2. Each Question will be displayed only once. <br />3. You will get 30 seconds to answer for each questions.<br /><br />Are you ready?? 



       rakin  ( Wednesday 1:14pm ) :-- 01671637388 



       AVA  ( Wednesday 1:14pm ) :-- So you're !     Abu Baker Siddique....... I am initiating a short interview session for you. <br /><br />1. There will be MCQ type Questions.You have to choose the right answer !<br />2. Each Question will be displayed only once ! <br />3. You will get 30 seconds to answer for each questions !<br /><br />Are you ready?? 



       rakin  ( Wednesday 1:15pm ) :-- yes Sir I am ready now 



       AVA  ( Wednesday 1:15pm ) :-- Which language in the following has no OOP property ?  \n \r JAVA ,  PHP ,  Python ,  C 



       rakin  ( Wednesday 1:15pm ) :-- C 



       AVA  ( Wednesday 1:15pm ) :-- which function removes blank space from both end in python ? \n \r trim ,  strip 



       rakin  ( Wednesday 1:15pm ) :-- strip 



       AVA  ( Wednesday 1:15pm ) :-- What is the name of the VM of JAVA ?  \n \r Hotspot ,  Casendra ,  Pypy ,  Jython 



       rakin  ( Wednesday 1:15pm ) :-- Hotspot 



       AVA  ( Wednesday 1:15pm ) :-- What is the name of national birds of Bangladesh \n \r Eagle ,  Doyel ,  Parrot ,  Bird ,  Rio 



       rakin  ( Wednesday 1:15pm ) :-- Doyel 



       AVA  ( Wednesday 1:15pm ) :-- question 5 \n \r ljl 



       AVA  ( Wednesday 1:15pm ) :-- not answered 



       AVA  ( Wednesday 1:16pm ) :-- what is the function for iterate a list ?  \n \r Array ,  For Loop ,  Pointer 



       rakin  ( Wednesday 1:16pm ) :-- Array 



       AVA  ( Wednesday 1:16pm ) :-- What are the main two renowned database in the world ?  \n \r Oracle ,  SQL Server ,  PHP ,  Python 



       rakin  ( Wednesday 1:16pm ) :-- Oracle 



       AVA  ( Wednesday 1:16pm ) :-- Who is the author of Flask ?  \n \r Salman Rakin ,  Sultan Ahmed ,  Armin Ronacher ,  Miguel Grinberg 



       rakin  ( Wednesday 1:16pm ) :-- Armin Ronacher 



       AVA  ( Wednesday 1:16pm ) :-- What is the capital of India? \n \r opt 1 ,  opt 2 ,  opt 3 



       rakin  ( Wednesday 1:16pm ) :-- opt 3 



       AVA  ( Wednesday 1:16pm ) :-- which data type in python is mutable ?  \n \r List ,  Dict ,  Tuple ,  Set 



       rakin  ( Wednesday 1:16pm ) :-- List 



       AVA  ( Wednesday 1:16pm ) :-- Q2 \n \r op3 ,  op2 ,  op1 ,  op4 



       rakin  ( Wednesday 1:16pm ) :-- op3 



       AVA  ( Wednesday 1:16pm ) :-- question number 6 \n \r opt1 ,  opt2 ,  opt3 



       rakin  ( Wednesday 1:16pm ) :-- opt3 



       AVA  ( Wednesday 1:16pm ) :-- Awesome! Your interview session ends here ! Hope to see You in our company!! 



       AVA  ( Wednesday 1:16pm ) :-- not answered 



       AVA  ( Wednesday 1:17pm ) :-- Okay. 



       rakin  ( Wednesday 1:17pm ) :-- Thanks 



       AVA  ( Wednesday 1:17pm ) :-- Good luck and have a good day! 



       rakin  ( Wednesday 1:17pm ) :-- what is my marks ? 



       AVA  ( Wednesday 1:17pm ) :-- I am here only to proceed E-recruitment. Please Contact with our HR department for any kind of help and support. Thanks!! 



 || Session_ID:- 40dbf4db-2705-e3bb-f59f-cb83e168d87b ||



       rakin  ( Wednesday 2:20pm ) :-- Vacancy Announcement 



       AVA  ( Wednesday 2:20pm ) :-- Please check the vacancy section of http://job.erainfotechbd.com:8888/hr/f?p=100:1:2524620618320548 .You may contact with our HR department as well. Thanks!! 



       rakin  ( Wednesday 2:20pm ) :-- Contact HR 



       AVA  ( Wednesday 2:20pm ) :-- You could contact with the following email addressl:- israt@<a href="http://www.era.com.bd ">era.com.bd </a>for any kind of query. You could reach us at this number 01904119220 as well. Thanks!! 



       rakin  ( Wednesday 2:22pm ) :-- Contact HR 



       AVA  ( Wednesday 2:22pm ) :-- You could contact with the following email addressl:- israt@<a href="http://www.erainfotechbd.com ">erainfotechbd.com </a>for any kind of query. You could reach us at this number 01904119220 as well. Thanks!! 



       rakin  ( Wednesday 2:25pm ) :-- Contact HR 



       AVA  ( Wednesday 2:25pm ) :-- Please email:- israt@erainfotechbd.com for any kind of query. You could reach us at 01904119220 as well. Thanks!! 



       rakin  ( Wednesday 2:25pm ) :-- Contact HR 



       AVA  ( Wednesday 2:25pm ) :-- You could contact with the following email addressl:- israt@erainfotechbd.com for any kind of query. You could reach us at this number 01904119220 as well. Thanks!! 



       rakin  ( Wednesday 2:27pm ) :-- Contact HR 



       AVA  ( Wednesday 2:27pm ) :-- Please email:- israt@erainfotechbd.com for any kind of query. You could reach us at 01904119220 as well. Thanks!! 



       rakin  ( Wednesday 2:29pm ) :-- Contact HR 



       AVA  ( Wednesday 2:30pm ) :-- You could contact with the following email addressl:- israt@erainfotechbd.com for any kind of query. You could reach us at this number 01904119220 as well. Thanks!! 



       rakin  ( Wednesday 2:30pm ) :-- Contact HR 



       rakin  ( Wednesday 2:30pm ) :-- Contact HR 



       AVA  ( Wednesday 2:30pm ) :-- Please email:- israt@erainfotechbd.com for any kind of query. You could reach us at 01904119220 as well. Thanks!! 



       rakin  ( Wednesday 2:37pm ) :-- Contact HR 



       AVA  ( Wednesday 2:37pm ) :-- <strong>You could contact with the following email addressl:- israt@erainfotechbd.com for any kind of query. You could reach us at this number 01904119220 as well. Thanks!!</strong> 



       rakin  ( Wednesday 2:40pm ) :-- Contact HR 



       AVA  ( Wednesday 2:40pm ) :-- You could contact with the following email addressl:- israt@erainfotechbd.com for any kind of query. You could reach us at this number 01904119220 as well. Thanks!! 



       rakin  ( Wednesday 2:40pm ) :-- Contact HR 



       AVA  ( Wednesday 2:40pm ) :-- You could contact with the following email addressl:- israt@erainfotechbd.com for any kind of query. You could reach us at this number 01904119220 as well. Thanks!! 



       rakin  ( Wednesday 2:41pm ) :-- Contact HR 



       AVA  ( Wednesday 2:41pm ) :-- You could contact with the following email addressl:- israt@erainfotechbd.com for any kind of query. You could reach us at this number 01904119220 as well. Thanks!! 



       rakin  ( Wednesday 2:41pm ) :-- Contact HR 



       AVA  ( Wednesday 2:41pm ) :-- You could contact with the following email addressl:- israt@erainfotechbd.com for any kind of query. You could reach us at this number 01904119220 as well. Thanks!! 



       rakin  ( Wednesday 2:41pm ) :-- Contact HR 



       AVA  ( Wednesday 2:41pm ) :-- You could contact with the following email addressl:- israt@erainfotechbd.com for any kind of query. You could reach us at this number 01904119220 as well. Thanks!! 



       rakin  ( Wednesday 2:42pm ) :-- Contact HR 



       AVA  ( Wednesday 2:42pm ) :-- Please email:- <strong>israt@<a href="http://www.erainfotechbd.com ">erainfotechbd.com </a></strong> for any kind of query. You could reach us at <strong>01904119220</strong> as well. Thanks!! 



       rakin  ( Wednesday 2:42pm ) :-- Contact HR 



       AVA  ( Wednesday 2:42pm ) :-- You could contact with the following email address:- <strong>israt@erainfotechbd.com</strong> for any kind of query. You could reach us at this number <strong>01904119220</strong> as well. Thanks!! 



       rakin  ( Wednesday 2:42pm ) :-- Contact HR 



       AVA  ( Wednesday 2:42pm ) :-- Please email:- <strong>israt@<a href="http://www.erainfotechbd.com ">erainfotechbd.com </a></strong> for any kind of query. You could reach us at <strong>01904119220</strong> as well. Thanks!! 



       rakin  ( Wednesday 2:44pm ) :-- Contact HR 



       AVA  ( Wednesday 2:44pm ) :-- You could contact with the following email address:- <strong>israt@erainfotechbd.com</strong> for any kind of query. You could reach us at this number <strong>01904119220</strong> as well. Thanks!! 



       rakin  ( Wednesday 2:44pm ) :-- Contact HR 



       AVA  ( Wednesday 2:44pm ) :-- You could contact with the following email address:- <strong>israt@erainfotechbd.com</strong> for any kind of query. You could reach us at this number <strong>01904119220</strong> as well. Thanks!! 



       rakin  ( Wednesday 2:44pm ) :-- Contact HR 



       AVA  ( Wednesday 2:44pm ) :-- Please email:- <strong>israt@erainfotechbd.com </strong> for any kind of query. You could reach us at <strong>01904119220</strong> as well. Thanks!! 



       rakin  ( Wednesday 2:44pm ) :-- Contact HR 



       AVA  ( Wednesday 2:44pm ) :-- Please email:- <strong>israt@<a href="http://www.erainfotechbd.com ">erainfotechbd.com </a></strong> for any kind of query. You could reach us at <strong>01904119220</strong> as well. Thanks!! 



       rakin  ( Wednesday 2:47pm ) :-- Vacancy Announcement 



       AVA  ( Wednesday 2:47pm ) :-- Please http://job.erainfotechbd.com:8888/hr/f?p=100:1:2524620618320548. You should notice if there is any vacancy available. Thanks!! 



       rakin  ( Wednesday 2:48pm ) :-- Vacancy Announcement 



       AVA  ( Wednesday 2:48pm ) :-- Please <a href= 'http://omniaccount.bankasia-bd.com/omni/f?p=103:57:189934202241::NO:::'>Click here</a>. You should notice if there is any vacancy available. Thanks!! 



       rakin  ( Wednesday 2:48pm ) :-- Vacancy Announcement 



       AVA  ( Wednesday 2:48pm ) :-- Please <a href= 'http://job.erainfotechbd.com:8888/hr/f?p=100:1:2524620618320548'>Click here</a>. You should notice if there is any vacancy available. Thanks!! 



       rakin  ( Wednesday 2:51pm ) :-- Vacancy Announcement 



       AVA  ( Wednesday 2:51pm ) :-- Please <a href= 'http://job.erainfotechbd.com:8888/hr/f?p=100:1:2524620618320548'>Click here</a> to see available vacancies .You may contact with our HR department as well. Thanks!! 



       rakin  ( Wednesday 2:51pm ) :-- Vacancy Announcement 



       AVA  ( Wednesday 2:51pm ) :-- Please <a href= 'http://job.erainfotechbd.com:8888/hr/f?p=100:1:2524620618320548'>Click here</a> and check the <i><u>Current Vacancy</u></i> Section You should notice if there is any vacancy available. Thanks!! 



 || Session_ID:- 16d609ef-5063-b60d-94a3-cb8991d046a4 ||

