

 || Session_ID:- b14738b6-58cb-0201-d16a-c06e467713f3 ||



       salman  ( Wednesday 12:22pm ) :-- eBanking 



       AVA  ( Wednesday 12:23pm ) :-- Sure! Please Enter Your Registered 11 Digit Mobile Number with Bank Asia Limited. 



       salman  ( Wednesday 12:23pm ) :-- 01787440110 



       AVA  ( Wednesday 12:23pm ) :-- Great. Now we will send an OTP to your mobile. Please Enter it correctly ! 



       AVA  ( Wednesday 12:23pm ) :-- Which type of balance: \r Debit , Credit Card 



       salman  ( Wednesday 12:24pm ) :-- Debit 



       AVA  ( Wednesday 12:24pm ) :-- I am sorry! salman. Please call 16205 for further assistance. <br /> Email:- contact.center@bankasia-bd.com 



       salman  ( Wednesday 12:24pm ) :-- 2019 



       AVA  ( Wednesday 12:24pm ) :-- I am sorry! salman. Please call 16205 for further assistance. <br /> Email:- contact.center@bankasia-bd.com 



       salman  ( Wednesday 12:25pm ) :-- eBanking 



       AVA  ( Wednesday 12:25pm ) :-- Sure! Please Enter Your Registered 11 Digit Mobile Number with Bank Asia Limited. 



       salman  ( Wednesday 12:25pm ) :-- 01787440110 



       AVA  ( Wednesday 12:25pm ) :-- Great. Now we will send an OTP to your mobile. Please Enter it correctly ! 



       salman  ( Wednesday 12:25pm ) :-- 2019 



       AVA  ( Wednesday 12:25pm ) :-- Wonderful! Which Information You need: \r Balance Enquiry  ,  Last 3 Transaction 



       salman  ( Wednesday 12:25pm ) :-- Balance Enquiry 



       AVA  ( Wednesday 12:25pm ) :-- Which type of balance: \r Debit , Credit Card 



       salman  ( Wednesday 12:25pm ) :-- Debit 



       AVA  ( Wednesday 12:25pm ) :-- Your Debit Blance is: BDT 127000. 



       salman  ( Wednesday 12:25pm ) :-- Credit Card 



       AVA  ( Wednesday 12:25pm ) :-- Your Credit Card Blance is: USD 235. 



       salman  ( Wednesday 12:25pm ) :-- Last 3 Transaction 



       AVA  ( Wednesday 12:25pm ) :-- Here's Your last 3 Transaction History. <br /> Date:- 6/12/2018, Particulars: Balance Brought Forward, Debit Amount: 18,23,298.85, Credit Amount: 19,01,867.53, Balance: 78,568.68 



 || Session_ID:- d7724526-5477-059f-723d-f190fdf0b288 ||



       salman  ( Wednesday 12:27pm ) :-- eBanking 



       AVA  ( Wednesday 12:27pm ) :-- Sure! Please Enter Your Registered 11 Digit Mobile Number with Bank Asia Limited. 



       salman  ( Wednesday 12:28pm ) :-- 01787440110 



       AVA  ( Wednesday 12:28pm ) :-- Great. Now we will send an OTP to your mobile. Please Enter it correctly ! 



       salman  ( Wednesday 12:28pm ) :-- 2019 



       AVA  ( Wednesday 12:28pm ) :-- Wonderful! Which Information You need: \r Balance Enquiry  ,  Last 3 Transaction 



       salman  ( Wednesday 12:29pm ) :-- Last 3 Transaction 



       AVA  ( Wednesday 12:29pm ) :-- Here's Your last 3 Transaction History. <br /> Date:- 6/12/2018, Particulars: Balance Brought Forward, Debit Amount: 18,23,298.85, Credit Amount: 19,01,867.53, Balance: 78,568.68 



 || Session_ID:- 520c6227-a536-7919-b9d0-cc911e27377b ||



       salman  ( Wednesday 12:30pm ) :-- eBanking 



       AVA  ( Wednesday 12:30pm ) :-- Sure! Please Enter Your Registered 11 Digit Mobile Number with Bank Asia Limited. 



       salman  ( Wednesday 12:33pm ) :-- eBanking 

