

       tasnuva -- 01847215643  ( Thursday 10:18am ) :-- interview 



       AVA  ( Thursday 10:18am ) :-- I am sorry! X, Please call 16205 for further assistance. \n Email:- contact.center@bankasia-bd.com or visit http://www.bankasia-bd.com/ 



       tasnuva -- 01847215643  ( Thursday 10:18am ) :-- interview 



       AVA  ( Thursday 10:18am ) :-- I am sorry! X, Please call 16205 for further assistance. \n Email:- contact.center@bankasia-bd.com or visit http://www.bankasia-bd.com/ 

