

       salman -- 01787440110  ( Wednesday 12:24pm ) :--  Debit  



       AVA  ( Wednesday 12:24pm ) :-- I am sorry! X, Please call 16205 for further assistance. \n Email:- contact.center@bankasia-bd.com 



       salman -- 01787440110  ( Wednesday 12:24pm ) :-- 2019 



       AVA  ( Wednesday 12:24pm ) :-- I am sorry! X, Please call 16205 for further assistance. \n Email:- contact.center@bankasia-bd.com 



       rakin -- 01787440110  ( Wednesday 12:26pm ) :-- debit 



       AVA  ( Wednesday 12:26pm ) :-- I am sorry! X, Please call 16205 for further assistance. \n Email:- contact.center@bankasia-bd.com 



       rakin -- 01787440110  ( Wednesday 12:32pm ) :-- 2019 



       AVA  ( Wednesday 12:32pm ) :-- I am sorry! X, Please call 16205 for further assistance. \n Email:- contact.center@bankasia-bd.com 



       rakin -- 01787440110  ( Wednesday 12:34pm ) :-- debit 



       AVA  ( Wednesday 12:34pm ) :-- I am sorry! X, Please call 16205 for further assistance. \n Email:- contact.center@bankasia-bd.com 

