

 || Session_ID:- 01055092-9f22-d959-68a1-8c2dc8309b88 ||



       anika  ( Tuesday 5:51pm ) :-- Hello 



       AVA  ( Tuesday 5:51pm ) :-- Hi! Do you have any valid Applicant/ Tracking ID ? 



       anika  ( Tuesday 5:52pm ) :-- hello 



       AVA  ( Tuesday 5:52pm ) :-- Hello! Do you have any valid Applicant/ Tracking ID ? 



       anika  ( Tuesday 5:52pm ) :-- No 



       AVA  ( Tuesday 5:52pm ) :-- No problem!. Your Contact Number of job application will Do. Please enter it correctly. 



       anika  ( Tuesday 5:53pm ) :-- 01671637388 



       AVA  ( Tuesday 5:53pm ) :-- Welcome!     Abu Baker Siddique....... I am initiating a short Interview Session for you. Are you ready?? 



       anika  ( Tuesday 5:53pm ) :-- yes 



       AVA  ( Tuesday 5:53pm ) :-- Which language in the following has no OOP property ?  \n \r JAVA ,  PHP ,  Python ,  C 



       anika  ( Tuesday 5:53pm ) :-- C 



       AVA  ( Tuesday 5:53pm ) :-- which function removes blank space from both end in python ? \n \r trim ,  strip 



       anika  ( Tuesday 5:53pm ) :-- strip 



       AVA  ( Tuesday 5:53pm ) :-- What is the name of the VM of JAVA ?  \n \r Hotspot ,  Casendra ,  Pypy ,  Jython 



       anika  ( Tuesday 5:53pm ) :-- Hotspot 



       AVA  ( Tuesday 5:53pm ) :-- What is the name of national birds of Bangladesh \n \r Eagle ,  Doyel ,  Parrot ,  Bird ,  Rio 



       anika  ( Tuesday 5:53pm ) :-- Doyel 



       AVA  ( Tuesday 5:53pm ) :-- question 5 \n \r ljl 



       anika  ( Tuesday 5:53pm ) :-- ljl 



       AVA  ( Tuesday 5:53pm ) :-- what is the function for iterate a list ?  \n \r Array ,  For Loop ,  Pointer 



       anika  ( Tuesday 5:53pm ) :-- Array 



       AVA  ( Tuesday 5:54pm ) :-- Who is the author of Flask ?  \n \r Salman Rakin ,  Sultan Ahmed ,  Armin Ronacher ,  Miguel Grinberg 



       anika  ( Tuesday 5:54pm ) :-- Armin Ronacher 



       AVA  ( Tuesday 5:54pm ) :-- What is the capital of India? \n \r opt 1 ,  opt 2 ,  opt 3 



       anika  ( Tuesday 5:54pm ) :-- opt 3 



       AVA  ( Tuesday 5:54pm ) :-- which data type in python is mutable ?  \n \r List ,  Dict ,  Tuple ,  Set 



       anika  ( Tuesday 5:54pm ) :-- List 



       AVA  ( Tuesday 5:54pm ) :-- Q2 \n \r op3 ,  op2 ,  op1 ,  op4 



       AVA  ( Tuesday 5:54pm ) :-- not answered 



       AVA  ( Tuesday 5:54pm ) :-- question number 6 \n \r opt1 ,  opt2 ,  opt3 



       anika  ( Tuesday 5:55pm ) :-- opt1 



       AVA  ( Tuesday 5:55pm ) :-- Awesome! Your interview session ends here ! Hope to see You in our company!! 



       AVA  ( Tuesday 5:55pm ) :-- not answered 



       AVA  ( Tuesday 5:55pm ) :-- I understand. 



       anika  ( Tuesday 5:55pm ) :-- opt3 



       AVA  ( Tuesday 5:55pm ) :-- Sorry ! My response is limited! Please Contact with our HR department for any kind of help and support. Thanks!! 

